{
  "$schema": "https://docs.renovatebot.com/renovate-schema.json",
  "extends": [
    "github>atlassian-labs/server-platform-renovate-config:backend"
  ],
  "baseBranches": [
    "master"
  ],
  "packageRules": [
    {
      "baseBranchList": [
      ],
      "updateTypes": [
        "major",
        "minor"
      ],
      "enabled": false,
      "prConcurrentLimit": 5
    }
  ]
}